Division,WeightClassKg,Place,Name,Team,BodyweightKg,Best3SquatKg,Best3BenchKg,Best3DeadliftKg,TotalKg,Equipment,Event,Sex
Girls,44.23,1,Lauren Sandoval,Kingsville King,43.73,90.72,38.56,95.25,224.53,Single-ply,SBD,F
Girls,44.23,2,Miranda Ortiz,Alice,41.73,86.18,43.09,92.99,222.26,Single-ply,SBD,F
Girls,44.23,3,Nayeli Everett,Kingsville King,43.27,74.84,31.75,86.18,192.78,Single-ply,SBD,F
Girls,44.23,DQ,Madelyn Rendon,Kingsville King,43.73,108.86,,,,Single-ply,SBD,F
Girls,47.85,1,Mialee Govea,Kingsville King,46.99,88.45,43.09,97.52,229.06,Single-ply,SBD,F
Girls,47.85,2,Kelis Ellington,Kingsville King,46.9,58.97,22.68,70.31,151.95,Single-ply,SBD,F
Girls,51.94,1,Lainey Figueroa,Alice,49.99,95.25,40.82,102.06,238.14,Single-ply,SBD,F
Girls,51.94,2,Keiandra Ross,Mathis,51.8,79.38,38.56,99.79,217.72,Single-ply,SBD,F
Girls,51.94,3,Kaila Sanchez,Mathis,51.71,95.25,34.02,79.38,208.65,Single-ply,SBD,F
Girls,51.94,4,Mercedes Leal,Mathis,50.71,81.65,36.29,72.57,190.51,Single-ply,SBD,F
Girls,56.02,1,Alaura-ly Gonzalez,Alice,52.53,111.13,54.43,113.4,278.96,Single-ply,SBD,F
Girls,56.02,2,Hailey Figueroa,Alice,52.98,104.33,52.16,99.79,256.28,Single-ply,SBD,F
Girls,56.02,3,Somaira Vega,Mathis,55.97,95.25,49.9,99.79,244.94,Single-ply,SBD,F
Girls,56.02,4,Aliyah Garcia,Taft,52.98,83.91,31.75,79.38,195.04,Single-ply,SBD,F
Girls,56.02,5,Jaida Alanis,Kingsville King,54.43,61.23,27.22,68.04,156.49,Single-ply,SBD,F
Girls,60.1,1,Adely Pando,Alice,57.79,111.13,61.23,131.54,303.91,Single-ply,SBD,F
Girls,60.1,2,Yasmine Rios,Kingsville King,58.51,74.84,38.56,79.38,192.78,Single-ply,SBD,F
Girls,60.1,3,Lilian Ondike,Corpus Christi Incarnate Word Academy,59.33,68.04,31.75,88.45,188.24,Single-ply,SBD,F
Girls,60.1,4,Cara Lichtenburger,Corpus Christi Incarnate Word Academy,59.78,65.77,27.22,72.57,165.56,Single-ply,SBD,F
Girls,60.1,DQ,Kaeleigh Amaya,Taft,56.34,83.91,,,,Single-ply,SBD,F
Girls,60.1,DQ,Ava Aleman,Corpus Christi Incarnate Word Academy,58.06,,,,,Single-ply,SBD,F
Girls,60.1,DQ,Theressa Gutierrez,Mathis,58.88,79.38,,,,Single-ply,SBD,F
Girls,60.1,DQ,Lorraine Olivarez,Mathis,59.06,63.5,,,,Single-ply,SBD,F
Girls,67.36,1,Maisie Garcia,Alice,67.13,104.33,45.36,106.59,256.28,Single-ply,SBD,F
Girls,67.36,2,Madison Leal,Mathis,67.31,86.18,36.29,106.59,229.06,Single-ply,SBD,F
Girls,67.36,3,Alazae Rodriguez,Kingsville King,66.77,95.25,43.09,88.45,226.8,Single-ply,SBD,F
Girls,67.36,4,Jada Davila,Kingsville King,65.5,81.65,47.63,92.99,222.26,Single-ply,SBD,F
Girls,67.36,5,Brandy Rodriguez,Mathis,62.69,88.45,38.56,86.18,213.19,Single-ply,SBD,F
Girls,67.36,6,Kamryn Walker,Kingsville King,63.41,88.45,34.02,90.72,213.19,Single-ply,SBD,F
Girls,67.36,DQ,Crystal Hipolito,Kingsville King,64.82,81.65,29.48,,,Single-ply,SBD,F
Girls,67.36,DQ,Madison Gillespie,Corpus Christi Incarnate Word Academy,60.96,,,,,Single-ply,SBD,F
Girls,75.07,1,Samantha Sullivan,Corpus Christi John Paul II High School,70.9,142.88,56.7,145.15,344.73,Single-ply,SBD,F
Girls,75.07,2,Lauren Chacon,Kingsville King,73.48,95.25,61.23,133.81,290.3,Single-ply,SBD,F
Girls,75.07,3,Isabel Ruiz,Kingsville King,69.58,83.91,45.36,113.4,242.67,Single-ply,SBD,F
Girls,75.07,4,Vanessa Pena,Kingsville King,72.03,92.99,43.09,104.33,240.4,Single-ply,SBD,F
Girls,75.07,5,Penelope Rendon,Taft,73.57,77.11,29.48,79.38,185.97,Single-ply,SBD,F
Girls,75.07,6,Ava Lichtenburger,Corpus Christi Incarnate Word Academy,74.21,72.57,22.68,83.91,179.17,Single-ply,SBD,F
Girls,75.07,DQ,Meaghan Ortiz,Taft,72.67,,,,,Single-ply,SBD,F
Girls,75.07,DQ,Makayla Markham,Alice,72.48,136.08,79.38,,,Single-ply,SBD,F
Girls,82.33,1,Taryn Mosqueda,Kingsville King,80.69,74.84,43.09,81.65,199.58,Single-ply,SBD,F
Girls,82.33,DQ,Belen Rios,Kingsville King,81.66,,,,,Single-ply,SBD,F
Girls,90.04,1,Alina Carrera,Taft,84.91,129.27,61.23,131.54,322.05,Single-ply,SBD,F
Girls,90.04,2,Araceli Saenz,Corpus Christi Incarnate Word Academy,88.99,61.23,34.02,79.38,174.63,Single-ply,SBD,F
Girls,90.04,DQ,Sopia Pena,Corpus Christi John Paul II High School,84.69,,,,,Single-ply,SBD,F
Girls,100.02,1,Araya Hinojosa,Kingsville King,93.98,129.27,61.23,120.2,310.71,Single-ply,SBD,F
Girls,100.02,2,Caitlin Lara,Mathis,91.63,111.13,58.97,88.45,258.55,Single-ply,SBD,F
Girls,100.02,3,Ivy Morales,Mathis,97.16,108.86,52.16,90.72,251.74,Single-ply,SBD,F
Girls,100.02,4,Lailla Mcgee,Kingsville King,92.71,88.45,43.09,97.52,229.06,Single-ply,SBD,F
Girls,117.71,1,Marissa Garcia,Alice,114.31,165.56,74.84,161.03,401.43,Single-ply,SBD,F
Girls,117.71,DQ,Kianna Tamaviz,Kingsville King,115.39,99.79,,,,Single-ply,SBD,F
