Division,WeightClassKg,Place,Name,Team,BodyweightKg,Best3SquatKg,Best3BenchKg,Best3DeadliftKg,TotalKg,Equipment,Event,Sex
Boys,51.71,1,Evan Guzman,Mineral Wells,51.71,102.06,79.38,124.74,306.17,Single-ply,SBD,M
Boys,51.71,2,Brayden Ragle,Weatherford,48.26,79.38,52.16,92.99,224.53,Single-ply,SBD,M
Boys,55.79,1,Zandon White,Bridgeport,55.79,108.86,,115.67,224.53,Single-ply,SD,M
Boys,59.87,1,Rowdy Parker,Bridgeport,57.79,154.22,88.45,161.03,403.7,Single-ply,SBD,M
Boys,59.87,2,Colton Rudder,Bridgeport,57.33,127.01,74.84,131.54,333.39,Single-ply,SBD,M
Boys,59.87,3,Jalen Baylor,Decatur,59.87,108.86,72.57,138.35,319.78,Single-ply,SBD,M
Boys,59.87,4,Luis Ramos,Decatur,59.87,99.79,65.77,120.2,285.76,Single-ply,SBD,M
Boys,59.87,5,Nate Cavazos,Weatherford,58.33,104.33,68.04,108.86,281.23,Single-ply,SBD,M
Boys,59.87,6,Matthew Thomas,Decatur,58.97,99.79,52.16,129.27,281.23,Single-ply,SBD,M
Boys,59.87,7,Josh Dagnino,Lake Worth,56.38,92.99,61.23,111.13,265.35,Single-ply,SBD,M
Boys,59.87,8,Xavier Medrano,Lake Worth,59.87,83.91,58.97,102.06,244.94,Single-ply,SBD,M
Boys,67.13,1,Jeremiah Wilton,Weatherford,66.77,145.15,90.72,142.88,378.75,Single-ply,SBD,M
Boys,67.13,2,Brando Forrest,Lake Worth,67.13,111.13,77.11,120.2,308.44,Single-ply,SBD,M
Boys,67.13,3,Eric Molina,Lake Worth,64.41,108.86,56.7,129.27,294.84,Single-ply,SBD,M
Boys,67.13,4,Cade Johnson,Decatur,62.41,108.86,61.23,115.67,285.76,Single-ply,SBD,M
Boys,67.13,5,Tanner Marlett,Bridgeport,66.77,,52.16,142.88,195.04,Single-ply,BD,M
Boys,74.84,1,Ryan Carpenter,Bridgeport,71.58,158.76,92.99,181.44,433.18,Single-ply,SBD,M
Boys,74.84,2,James Vela,Graham,74.84,149.69,88.45,147.42,385.55,Single-ply,SBD,M
Boys,74.84,3,Jimmy Gamino,Decatur,74.84,147.42,83.91,129.27,360.61,Single-ply,SBD,M
Boys,74.84,4,Anthony Sirianni,Graham,67.4,129.27,70.31,127.01,326.59,Single-ply,SBD,M
Boys,74.84,5,Eddie Cervantes,Bridgeport,70.03,113.4,74.84,133.81,322.05,Single-ply,SBD,M
Boys,74.84,6,Carlos Aguirre,Lake Worth,74.84,113.4,63.5,138.35,315.25,Single-ply,SBD,M
Boys,74.84,7,Michael Keller,Decatur,71.4,106.59,63.5,122.47,292.57,Single-ply,SBD,M
Boys,74.84,8,Eric Cervantes,Bridgeport,72.57,,77.11,158.76,235.87,Single-ply,BD,M
Boys,82.1,1,Colton Ligon,Graham,76.48,161.03,108.86,179.17,449.06,Single-ply,SBD,M
Boys,82.1,2,Aldo Cerceres,Graham,79.02,161.03,97.52,158.76,417.3,Single-ply,SBD,M
Boys,82.1,3,Kequan Cyphers,Mineral Wells,79.29,151.95,83.91,149.69,385.55,Single-ply,SBD,M
Boys,82.1,4,Gustavo Isaac,Decatur,80.74,142.88,90.72,147.42,381.02,Single-ply,SBD,M
Boys,82.1,5,Hector Gonzalez,Mineral Wells,78.65,142.88,79.38,145.15,367.41,Single-ply,SBD,M
Boys,82.1,6,Abel Aldape,Decatur,78.2,140.61,79.38,133.81,353.8,Single-ply,SBD,M
Boys,82.1,7,Elijah Gratts,Weatherford,82.01,106.59,77.11,111.13,294.84,Single-ply,SBD,M
Boys,82.1,8,Gavin Lopez,Weatherford,80.2,102.06,56.7,90.72,249.48,Single-ply,SBD,M
Boys,89.81,1,Hunter Shinault,Decatur,86.45,156.49,86.18,174.63,417.3,Single-ply,SBD,M
Boys,89.81,2,Bryson Ross,Weatherford,88.99,145.15,108.86,163.29,417.3,Single-ply,SBD,M
Boys,89.81,3,Jackson Kirkland,Weatherford,88.27,142.88,90.72,117.93,351.53,Single-ply,SBD,M
Boys,89.81,4,Adian Torres,Lake Worth,87.18,120.2,54.43,156.49,331.12,Single-ply,SBD,M
Boys,89.81,5,Jacob Butler,Mineral Wells,84.37,102.06,65.77,124.74,292.57,Single-ply,SBD,M
Boys,99.79,1,Carson Wicker,Decatur,94.71,154.22,102.06,181.44,437.72,Single-ply,SBD,M
Boys,99.79,2,Caesar Frayre,Weatherford,99.61,181.44,97.52,149.69,428.64,Single-ply,SBD,M
Boys,99.79,3,Miguel Esparza,Decatur,95.07,161.03,79.38,181.44,421.84,Single-ply,SBD,M
Boys,99.79,4,Billy Banks,Lake Worth,91.76,151.95,92.99,170.1,415.04,Single-ply,SBD,M
Boys,99.79,5,John Hogg,Decatur,92.53,142.88,90.72,140.61,374.21,Single-ply,SBD,M
Boys,99.79,6,Masin Bigsby,Decatur,90.72,136.08,79.38,151.95,367.41,Single-ply,SBD,M
Boys,99.79,7,Mauro Sandoval,Bridgeport,99.06,147.42,90.72,122.47,360.61,Single-ply,SBD,M
Boys,99.79,8,Dylan Rudder,Graham,98.61,161.03,,,161.03,Single-ply,S,M
Boys,99.79,DQ,Eagan Dennett,Weatherford,94.26,142.88,,145.15,,Single-ply,SBD,M
Boys,109.77,1,Gary O'Bannon,Weatherford,109.04,165.56,102.06,149.69,417.3,Single-ply,SBD,M
Boys,109.77,2,Gordan Taylor,Graham,107.5,161.03,92.99,156.49,410.5,Single-ply,SBD,M
Boys,109.77,3,Josh Espinoza,Lake Worth,104.78,142.88,92.99,154.22,390.09,Single-ply,SBD,M
Boys,109.77,4,Elias Lopez,Mineral Wells,109.77,151.95,79.38,147.42,378.75,Single-ply,SBD,M
Boys,109.77,5,Justin Frazier,Graham,102.15,151.95,77.11,142.88,371.95,Single-ply,SBD,M
Boys,109.77,6,Heladio Gonzales,Mineral Wells,103.69,142.88,90.72,136.08,369.68,Single-ply,SBD,M
Boys,109.77,7,Karson Daniel,Weatherford,107.68,117.93,106.59,117.93,342.46,Single-ply,SBD,M
Boys,109.77,DQ,Chasen Mccue,Weatherford,104.87,,,,,Single-ply,SBD,M
Boys,124.74,1,Rodrigo Cruz,Decatur,123.1,172.37,97.52,158.76,428.64,Single-ply,SBD,M
Boys,124.74,2,Isaih Holguin,Lake Worth,116.03,129.27,92.99,174.63,396.89,Single-ply,SBD,M
Boys,124.74,3,Mathew Welch,Lake Worth,117.93,127.01,95.25,174.63,396.89,Single-ply,SBD,M
Boys,124.74,4,Juan Vasquez,Weatherford,121.93,115.67,72.57,120.2,308.44,Single-ply,SBD,M
Boys,,NS,Jordan Baylor,Decatur,,,,,,Single-ply,SBD,M
Boys,,NS,Owen Lumbereras,Bridgeport,,,,,,Single-ply,SBD,M
Boys,,NS,Raul Alvarez,Lake Worth,,,,,,Single-ply,SBD,M
Boys,,NS,Alejandro Santillian,Lake Worth,,,,,,Single-ply,SBD,M
Boys,,NS,Brandon Dodds,Lake Worth,,,,,,Single-ply,SBD,M
